[
  {
    "id": "",
    "name": ""
  },
  {
    "id": "FR",
    "name": "FR"
  },
  {
    "id": "AF",
    "name": "AF"
  },
  {
    "id": "AX",
    "name": "AX"
  },
  {
    "id": "AL",
    "name": "AL"
  },
  {
    "id": "DZ",
    "name": "DZ"
  },
  {
    "id": "AS",
    "name": "AS"
  },
  {
    "id": "AD",
    "name": "AD"
  },
  {
    "id": "AO",
    "name": "AO"
  },
  {
    "id": "AI",
    "name": "AI"
  },
  {
    "id": "AQ",
    "name": "AQ"
  },
  {
    "id": "AG",
    "name": "AG"
  },
  {
    "id": "AR",
    "name": "AR"
  },
  {
    "id": "AM",
    "name": "AM"
  },
  {
    "id": "AW",
    "name": "AW"
  },
  {
    "id": "AU",
    "name": "AU"
  },
  {
    "id": "AT",
    "name": "AT"
  },
  {
    "id": "AZ",
    "name": "AZ"
  },
  {
    "id": "BS",
    "name": "BS"
  },
  {
    "id": "BH",
    "name": "BH"
  },
  {
    "id": "BD",
    "name": "BD"
  },
  {
    "id": "BB",
    "name": "BB"
  },
  {
    "id": "BY",
    "name": "BY"
  },
  {
    "id": "BE",
    "name": "BE"
  },
  {
    "id": "BZ",
    "name": "BZ"
  },
  {
    "id": "BJ",
    "name": "BJ"
  },
  {
    "id": "BM",
    "name": "BM"
  },
  {
    "id": "BT",
    "name": "BT"
  },
  {
    "id": "BO",
    "name": "BO"
  },
  {
    "id": "BQ",
    "name": "BQ"
  },
  {
    "id": "BA",
    "name": "BA"
  },
  {
    "id": "BW",
    "name": "BW"
  },
  {
    "id": "BV",
    "name": "BV"
  },
  {
    "id": "BR",
    "name": "BR"
  },
  {
    "id": "IO",
    "name": "IO"
  },
  {
    "id": "BN",
    "name": "BN"
  },
  {
    "id": "BG",
    "name": "BG"
  },
  {
    "id": "BF",
    "name": "BF"
  },
  {
    "id": "BI",
    "name": "BI"
  },
  {
    "id": "KH",
    "name": "KH"
  },
  {
    "id": "CM",
    "name": "CM"
  },
  {
    "id": "CA",
    "name": "CA"
  },
  {
    "id": "CV",
    "name": "CV"
  },
  {
    "id": "KY",
    "name": "KY"
  },
  {
    "id": "CF",
    "name": "CF"
  },
  {
    "id": "TD",
    "name": "TD"
  },
  {
    "id": "CL",
    "name": "CL"
  },
  {
    "id": "CN",
    "name": "CN"
  },
  {
    "id": "CX",
    "name": "CX"
  },
  {
    "id": "CC",
    "name": "CC"
  },
  {
    "id": "CO",
    "name": "CO"
  },
  {
    "id": "KM",
    "name": "KM"
  },
  {
    "id": "CG",
    "name": "CG"
  },
  {
    "id": "CD",
    "name": "CD"
  },
  {
    "id": "CK",
    "name": "CK"
  },
  {
    "id": "CR",
    "name": "CR"
  },
  {
    "id": "CI",
    "name": "CI"
  },
  {
    "id": "HR",
    "name": "HR"
  },
  {
    "id": "CU",
    "name": "CU"
  },
  {
    "id": "CW",
    "name": "CW"
  },
  {
    "id": "CY",
    "name": "CY"
  },
  {
    "id": "CZ",
    "name": "CZ"
  },
  {
    "id": "DK",
    "name": "DK"
  },
  {
    "id": "DJ",
    "name": "DJ"
  },
  {
    "id": "DM",
    "name": "DM"
  },
  {
    "id": "DO",
    "name": "DO"
  },
  {
    "id": "EC",
    "name": "EC"
  },
  {
    "id": "EG",
    "name": "EG"
  },
  {
    "id": "SV",
    "name": "SV"
  },
  {
    "id": "GQ",
    "name": "GQ"
  },
  {
    "id": "ER",
    "name": "ER"
  },
  {
    "id": "EE",
    "name": "EE"
  },
  {
    "id": "ET",
    "name": "ET"
  },
  {
    "id": "FK",
    "name": "FK"
  },
  {
    "id": "FO",
    "name": "FO"
  },
  {
    "id": "FJ",
    "name": "FJ"
  },
  {
    "id": "FI",
    "name": "FI"
  },
  {
    "id": "GF",
    "name": "GF"
  },
  {
    "id": "PF",
    "name": "PF"
  },
  {
    "id": "TF",
    "name": "TF"
  },
  {
    "id": "GA",
    "name": "GA"
  },
  {
    "id": "GM",
    "name": "GM"
  },
  {
    "id": "GE",
    "name": "GE"
  },
  {
    "id": "DE",
    "name": "DE"
  },
  {
    "id": "GH",
    "name": "GH"
  },
  {
    "id": "GI",
    "name": "GI"
  },
  {
    "id": "GR",
    "name": "GR"
  },
  {
    "id": "GL",
    "name": "GL"
  },
  {
    "id": "GD",
    "name": "GD"
  },
  {
    "id": "GP",
    "name": "GP"
  },
  {
    "id": "GU",
    "name": "GU"
  },
  {
    "id": "GT",
    "name": "GT"
  },
  {
    "id": "GG",
    "name": "GG"
  },
  {
    "id": "GN",
    "name": "GN"
  },
  {
    "id": "GW",
    "name": "GW"
  },
  {
    "id": "GY",
    "name": "GY"
  },
  {
    "id": "HT",
    "name": "HT"
  },
  {
    "id": "HM",
    "name": "HM"
  },
  {
    "id": "VA",
    "name": "VA"
  },
  {
    "id": "HN",
    "name": "HN"
  },
  {
    "id": "HK",
    "name": "HK"
  },
  {
    "id": "HU",
    "name": "HU"
  },
  {
    "id": "IS",
    "name": "IS"
  },
  {
    "id": "IN",
    "name": "IN"
  },
  {
    "id": "ID",
    "name": "ID"
  },
  {
    "id": "IR",
    "name": "IR"
  },
  {
    "id": "IQ",
    "name": "IQ"
  },
  {
    "id": "IE",
    "name": "IE"
  },
  {
    "id": "IM",
    "name": "IM"
  },
  {
    "id": "IL",
    "name": "IL"
  },
  {
    "id": "IT",
    "name": "IT"
  },
  {
    "id": "JM",
    "name": "JM"
  },
  {
    "id": "JP",
    "name": "JP"
  },
  {
    "id": "JE",
    "name": "JE"
  },
  {
    "id": "JO",
    "name": "JO"
  },
  {
    "id": "KZ",
    "name": "KZ"
  },
  {
    "id": "KE",
    "name": "KE"
  },
  {
    "id": "KI",
    "name": "KI"
  },
  {
    "id": "KP",
    "name": "KP"
  },
  {
    "id": "KR",
    "name": "KR"
  },
  {
    "id": "KW",
    "name": "KW"
  },
  {
    "id": "KG",
    "name": "KG"
  },
  {
    "id": "LA",
    "name": "LA"
  },
  {
    "id": "LV",
    "name": "LV"
  },
  {
    "id": "LB",
    "name": "LB"
  },
  {
    "id": "LS",
    "name": "LS"
  },
  {
    "id": "LR",
    "name": "LR"
  },
  {
    "id": "LY",
    "name": "LY"
  },
  {
    "id": "LI",
    "name": "LI"
  },
  {
    "id": "LT",
    "name": "LT"
  },
  {
    "id": "LU",
    "name": "LU"
  },
  {
    "id": "MO",
    "name": "MO"
  },
  {
    "id": "MK",
    "name": "MK"
  },
  {
    "id": "MG",
    "name": "MG"
  },
  {
    "id": "MW",
    "name": "MW"
  },
  {
    "id": "MY",
    "name": "MY"
  },
  {
    "id": "MV",
    "name": "MV"
  },
  {
    "id": "ML",
    "name": "ML"
  },
  {
    "id": "MT",
    "name": "MT"
  },
  {
    "id": "MH",
    "name": "MH"
  },
  {
    "id": "MQ",
    "name": "MQ"
  },
  {
    "id": "MR",
    "name": "MR"
  },
  {
    "id": "MU",
    "name": "MU"
  },
  {
    "id": "YT",
    "name": "YT"
  },
  {
    "id": "MX",
    "name": "MX"
  },
  {
    "id": "FM",
    "name": "FM"
  },
  {
    "id": "MD",
    "name": "MD"
  },
  {
    "id": "MC",
    "name": "MC"
  },
  {
    "id": "MN",
    "name": "MN"
  },
  {
    "id": "ME",
    "name": "ME"
  },
  {
    "id": "MS",
    "name": "MS"
  },
  {
    "id": "MA",
    "name": "MA"
  },
  {
    "id": "MZ",
    "name": "MZ"
  },
  {
    "id": "MM",
    "name": "MM"
  },
  {
    "id": "NA",
    "name": "NA"
  },
  {
    "id": "NR",
    "name": "NR"
  },
  {
    "id": "NP",
    "name": "NP"
  },
  {
    "id": "NL",
    "name": "NL"
  },
  {
    "id": "NC",
    "name": "NC"
  },
  {
    "id": "NZ",
    "name": "NZ"
  },
  {
    "id": "NI",
    "name": "NI"
  },
  {
    "id": "NE",
    "name": "NE"
  },
  {
    "id": "NG",
    "name": "NG"
  },
  {
    "id": "NU",
    "name": "NU"
  },
  {
    "id": "NF",
    "name": "NF"
  },
  {
    "id": "MP",
    "name": "MP"
  },
  {
    "id": "NO",
    "name": "NO"
  },
  {
    "id": "OM",
    "name": "OM"
  },
  {
    "id": "PK",
    "name": "PK"
  },
  {
    "id": "PW",
    "name": "PW"
  },
  {
    "id": "PS",
    "name": "PS"
  },
  {
    "id": "PA",
    "name": "PA"
  },
  {
    "id": "PG",
    "name": "PG"
  },
  {
    "id": "PY",
    "name": "PY"
  },
  {
    "id": "PE",
    "name": "PE"
  },
  {
    "id": "PH",
    "name": "PH"
  },
  {
    "id": "PN",
    "name": "PN"
  },
  {
    "id": "PL",
    "name": "PL"
  },
  {
    "id": "PT",
    "name": "PT"
  },
  {
    "id": "PR",
    "name": "PR"
  },
  {
    "id": "QA",
    "name": "QA"
  },
  {
    "id": "RE",
    "name": "RE"
  },
  {
    "id": "RO",
    "name": "RO"
  },
  {
    "id": "RU",
    "name": "RU"
  },
  {
    "id": "RW",
    "name": "RW"
  },
  {
    "id": "BL",
    "name": "BL"
  },
  {
    "id": "SH",
    "name": "SH"
  },
  {
    "id": "KN",
    "name": "KN"
  },
  {
    "id": "LC",
    "name": "LC"
  },
  {
    "id": "MF",
    "name": "MF"
  },
  {
    "id": "PM",
    "name": "PM"
  },
  {
    "id": "VC",
    "name": "VC"
  },
  {
    "id": "WS",
    "name": "WS"
  },
  {
    "id": "SM",
    "name": "SM"
  },
  {
    "id": "ST",
    "name": "ST"
  },
  {
    "id": "SA",
    "name": "SA"
  },
  {
    "id": "SN",
    "name": "SN"
  },
  {
    "id": "RS",
    "name": "RS"
  },
  {
    "id": "SC",
    "name": "SC"
  },
  {
    "id": "SL",
    "name": "SL"
  },
  {
    "id": "SG",
    "name": "SG"
  },
  {
    "id": "SX",
    "name": "SX"
  },
  {
    "id": "SK",
    "name": "SK"
  },
  {
    "id": "SI",
    "name": "SI"
  },
  {
    "id": "SB",
    "name": "SB"
  },
  {
    "id": "SO",
    "name": "SO"
  },
  {
    "id": "ZA",
    "name": "ZA"
  },
  {
    "id": "GS",
    "name": "GS"
  },
  {
    "id": "SS",
    "name": "SS"
  },
  {
    "id": "ES",
    "name": "ES"
  },
  {
    "id": "LK",
    "name": "LK"
  },
  {
    "id": "SD",
    "name": "SD"
  },
  {
    "id": "SR",
    "name": "SR"
  },
  {
    "id": "SJ",
    "name": "SJ"
  },
  {
    "id": "SZ",
    "name": "SZ"
  },
  {
    "id": "SE",
    "name": "SE"
  },
  {
    "id": "CH",
    "name": "CH"
  },
  {
    "id": "SY",
    "name": "SY"
  },
  {
    "id": "TW",
    "name": "TW"
  },
  {
    "id": "TJ",
    "name": "TJ"
  },
  {
    "id": "TZ",
    "name": "TZ"
  },
  {
    "id": "TH",
    "name": "TH"
  },
  {
    "id": "TL",
    "name": "TL"
  },
  {
    "id": "TG",
    "name": "TG"
  },
  {
    "id": "TK",
    "name": "TK"
  },
  {
    "id": "TO",
    "name": "TO"
  },
  {
    "id": "TT",
    "name": "TT"
  },
  {
    "id": "TN",
    "name": "TN"
  },
  {
    "id": "TR",
    "name": "TR"
  },
  {
    "id": "TM",
    "name": "TM"
  },
  {
    "id": "TC",
    "name": "TC"
  },
  {
    "id": "TV",
    "name": "TV"
  },
  {
    "id": "UG",
    "name": "UG"
  },
  {
    "id": "UA",
    "name": "UA"
  },
  {
    "id": "AE",
    "name": "AE"
  },
  {
    "id": "GB",
    "name": "GB"
  },
  {
    "id": "US",
    "name": "US"
  },
  {
    "id": "UM",
    "name": "UM"
  },
  {
    "id": "UY",
    "name": "UY"
  },
  {
    "id": "UZ",
    "name": "UZ"
  },
  {
    "id": "VU",
    "name": "VU"
  },
  {
    "id": "VE",
    "name": "VE"
  },
  {
    "id": "VN",
    "name": "VN"
  },
  {
    "id": "VG",
    "name": "VG"
  },
  {
    "id": "VI",
    "name": "VI"
  },
  {
    "id": "WF",
    "name": "WF"
  },
  {
    "id": "EH",
    "name": "EH"
  },
  {
    "id": "YE",
    "name": "YE"
  },
  {
    "id": "ZM",
    "name": "ZM"
  },
  {
    "id": "ZW",
    "name": "ZW"
  }
]